// Jest Snapshot v1, https://goo.gl/fbAQLP

exports[`App App should render properly 1`] = `
<View
  style={
    Object {
      "backgroundColor": "#fff",
      "flex": 1,
    }
  }
>
  <View
    collapsable={false}
    pointerEvents="box-none"
    style={
      Object {
        "flex": 1,
      }
    }
  />
</View>
`;

exports[`productReducer productReducer => GET_ARTISANS 1`] = `
Object {
  "accountReducer": Object {
    "checkAccountLoginRes": Array [],
    "errorMsg": "",
    "logoutReduxRes": Array [],
    "signUpRes": Array [],
    "successMsg": "",
  },
  "masterReducer": Object {
    "errorMsg": "",
    "getLangRes": Array [],
    "postLangRes": Array [],
    "successMsg": "",
  },
  "productReducer": Object {
    "errorMsg": "",
    "getArtisansRes": Array [],
    "getClaimsRes": Array [],
    "getPerksRes": Array [],
    "getProductsRes": Array [],
    "getRealtiesRes": Array [],
    "successMsg": "",
  },
}
`;

exports[`productReducer productReducer => GET_CLAIMS 1`] = `
Object {
  "accountReducer": Object {
    "checkAccountLoginRes": Array [],
    "errorMsg": "",
    "logoutReduxRes": Array [],
    "signUpRes": Array [],
    "successMsg": "",
  },
  "masterReducer": Object {
    "errorMsg": "",
    "getLangRes": Array [],
    "postLangRes": Array [],
    "successMsg": "",
  },
  "productReducer": Object {
    "errorMsg": "",
    "getArtisansRes": Array [],
    "getClaimsRes": Array [],
    "getPerksRes": Array [],
    "getProductsRes": Array [],
    "getRealtiesRes": Array [],
    "successMsg": "",
  },
}
`;

exports[`productReducer productReducer => GET_PERKS 1`] = `
Object {
  "accountReducer": Object {
    "checkAccountLoginRes": Array [],
    "errorMsg": "",
    "logoutReduxRes": Array [],
    "signUpRes": Array [],
    "successMsg": "",
  },
  "masterReducer": Object {
    "errorMsg": "",
    "getLangRes": Array [],
    "postLangRes": Array [],
    "successMsg": "",
  },
  "productReducer": Object {
    "errorMsg": "",
    "getArtisansRes": Array [],
    "getClaimsRes": Array [],
    "getPerksRes": Array [],
    "getProductsRes": Array [],
    "getRealtiesRes": Array [],
    "successMsg": "",
  },
}
`;

exports[`productReducer productReducer => GET_PRODUCTS 1`] = `
Object {
  "accountReducer": Object {
    "checkAccountLoginRes": Array [],
    "errorMsg": "",
    "logoutReduxRes": Array [],
    "signUpRes": Array [],
    "successMsg": "",
  },
  "masterReducer": Object {
    "errorMsg": "",
    "getLangRes": Array [],
    "postLangRes": Array [],
    "successMsg": "",
  },
  "productReducer": Object {
    "errorMsg": "",
    "getArtisansRes": Array [],
    "getClaimsRes": Array [],
    "getPerksRes": Array [],
    "getProductsRes": Array [],
    "getRealtiesRes": Array [],
    "successMsg": "",
  },
}
`;

exports[`productReducer productReducer => GET_REALTIES 1`] = `
Object {
  "accountReducer": Object {
    "checkAccountLoginRes": Array [],
    "errorMsg": "",
    "logoutReduxRes": Array [],
    "signUpRes": Array [],
    "successMsg": "",
  },
  "masterReducer": Object {
    "errorMsg": "",
    "getLangRes": Array [],
    "postLangRes": Array [],
    "successMsg": "",
  },
  "productReducer": Object {
    "errorMsg": "",
    "getArtisansRes": Array [],
    "getClaimsRes": Array [],
    "getPerksRes": Array [],
    "getProductsRes": Array [],
    "getRealtiesRes": Array [],
    "successMsg": "",
  },
}
`;

exports[`productReducer productReducer => initial state 1`] = `
Object {
  "accountReducer": Object {
    "checkAccountLoginRes": Array [],
    "errorMsg": "",
    "logoutReduxRes": Array [],
    "signUpRes": Array [],
    "successMsg": "",
  },
  "masterReducer": Object {
    "errorMsg": "",
    "getLangRes": Array [],
    "postLangRes": Array [],
    "successMsg": "",
  },
  "productReducer": Object {
    "errorMsg": "",
    "getArtisansRes": Array [],
    "getClaimsRes": Array [],
    "getPerksRes": Array [],
    "getProductsRes": Array [],
    "getRealtiesRes": Array [],
    "successMsg": "",
  },
}
`;
